%YAML 1.1
%TAG !u! tag:unity3d.com,2011:
--- !u!1001 &8977009933043395030
PrefabInstance:
  m_ObjectHideFlags: 0
  serializedVersion: 2
  m_Modification:
    m_TransformParent: {fileID: 0}
    m_Modifications:
    - target: {fileID: 1400160689507927900, guid: 4fa8846d6b5c1c640a5823f42c73cd17, type: 3}
      propertyPath: m_Name
      value: room2
      objectReference: {fileID: 0}
    - target: {fileID: 1739953056527048166, guid: 4fa8846d6b5c1c640a5823f42c73cd17, type: 3}
      propertyPath: m_RootOrder
      value: 0
      objectReference: {fileID: 0}
    - target: {fileID: 1739953056527048166, guid: 4fa8846d6b5c1c640a5823f42c73cd17, type: 3}
      propertyPath: m_LocalPosition.x
      value: -0
      objectReference: {fileID: 0}
    - target: {fileID: 1739953056527048166, guid: 4fa8846d6b5c1c640a5823f42c73cd17, type: 3}
      propertyPath: m_LocalPosition.y
      value: 0
      objectReference: {fileID: 0}
    - target: {fileID: 1739953056527048166, guid: 4fa8846d6b5c1c640a5823f42c73cd17, type: 3}
      propertyPath: m_LocalPosition.z
      value: -9.57
      objectReference: {fileID: 0}
    - target: {fileID: 1739953056527048166, guid: 4fa8846d6b5c1c640a5823f42c73cd17, type: 3}
      propertyPath: m_LocalRotation.w
      value: 1
      objectReference: {fileID: 0}
    - target: {fileID: 1739953056527048166, guid: 4fa8846d6b5c1c640a5823f42c73cd17, type: 3}
      propertyPath: m_LocalRotation.x
      value: 0
      objectReference: {fileID: 0}
    - target: {fileID: 1739953056527048166, guid: 4fa8846d6b5c1c640a5823f42c73cd17, type: 3}
      propertyPath: m_LocalRotation.y
      value: 0
      objectReference: {fileID: 0}
    - target: {fileID: 1739953056527048166, guid: 4fa8846d6b5c1c640a5823f42c73cd17, type: 3}
      propertyPath: m_LocalRotation.z
      value: 0
      objectReference: {fileID: 0}
    - target: {fileID: 1739953056527048166, guid: 4fa8846d6b5c1c640a5823f42c73cd17, type: 3}
      propertyPath: m_LocalEulerAnglesHint.x
      value: 0
      objectReference: {fileID: 0}
    - target: {fileID: 1739953056527048166, guid: 4fa8846d6b5c1c640a5823f42c73cd17, type: 3}
      propertyPath: m_LocalEulerAnglesHint.y
      value: 0
      objectReference: {fileID: 0}
    - target: {fileID: 1739953056527048166, guid: 4fa8846d6b5c1c640a5823f42c73cd17, type: 3}
      propertyPath: m_LocalEulerAnglesHint.z
      value: 0
      objectReference: {fileID: 0}
    m_RemovedComponents: []
  m_SourcePrefab: {fileID: 100100000, guid: 4fa8846d6b5c1c640a5823f42c73cd17, type: 3}
