%YAML 1.1
%TAG !u! tag:unity3d.com,2011:
--- !u!1 &644905779
GameObject:
  m_ObjectHideFlags: 0
  m_CorrespondingSourceObject: {fileID: 0}
  m_PrefabInstance: {fileID: 0}
  m_PrefabAsset: {fileID: 0}
  serializedVersion: 6
  m_Component:
  - component: {fileID: 644905780}
  - component: {fileID: 644905781}
  m_Layer: 0
  m_Name: string
  m_TagString: Untagged
  m_Icon: {fileID: 0}
  m_NavMeshLayer: 0
  m_StaticEditorFlags: 0
  m_IsActive: 1
--- !u!4 &644905780
Transform:
  m_ObjectHideFlags: 0
  m_CorrespondingSourceObject: {fileID: 0}
  m_PrefabInstance: {fileID: 0}
  m_PrefabAsset: {fileID: 0}
  m_GameObject: {fileID: 644905779}
  m_LocalRotation: {x: 0, y: 0, z: 0, w: 1}
  m_LocalPosition: {x: 0, y: 0, z: 0}
  m_LocalScale: {x: 1, y: 1, z: 1}
  m_ConstrainProportionsScale: 0
  m_Children: []
  m_Father: {fileID: 2138392463141434612}
  m_RootOrder: 2
  m_LocalEulerAnglesHint: {x: 0, y: 0, z: 0}
--- !u!120 &644905781
LineRenderer:
  m_ObjectHideFlags: 0
  m_CorrespondingSourceObject: {fileID: 0}
  m_PrefabInstance: {fileID: 0}
  m_PrefabAsset: {fileID: 0}
  m_GameObject: {fileID: 644905779}
  m_Enabled: 1
  m_CastShadows: 1
  m_ReceiveShadows: 1
  m_DynamicOccludee: 1
  m_StaticShadowCaster: 0
  m_MotionVectors: 0
  m_LightProbeUsage: 0
  m_ReflectionProbeUsage: 0
  m_RayTracingMode: 0
  m_RayTraceProcedural: 0
  m_RenderingLayerMask: 1
  m_RendererPriority: 0
  m_Materials:
  - {fileID: 2100000, guid: 6502c3674a2c959469cb60d73424d462, type: 2}
  m_StaticBatchInfo:
    firstSubMesh: 0
    subMeshCount: 0
  m_StaticBatchRoot: {fileID: 0}
  m_ProbeAnchor: {fileID: 0}
  m_LightProbeVolumeOverride: {fileID: 0}
  m_ScaleInLightmap: 1
  m_ReceiveGI: 1
  m_PreserveUVs: 0
  m_IgnoreNormalsForChartDetection: 0
  m_ImportantGI: 0
  m_StitchLightmapSeams: 1
  m_SelectedEditorRenderState: 3
  m_MinimumChartSize: 4
  m_AutoUVMaxDistance: 0.5
  m_AutoUVMaxAngle: 89
  m_LightmapParameters: {fileID: 0}
  m_SortingLayerID: 0
  m_SortingLayer: 0
  m_SortingOrder: 0
  m_Positions:
  - {x: 0, y: 0.875, z: -0.31}
  - {x: 0, y: 0, z: -0.3}
  - {x: 0, y: -0.875, z: -0.265}
  m_Parameters:
    serializedVersion: 3
    widthMultiplier: 0.03
    widthCurve:
      serializedVersion: 2
      m_Curve:
      - serializedVersion: 3
        time: 0
        value: 1
        inSlope: 0
        outSlope: 0
        tangentMode: 0
        weightedMode: 0
        inWeight: 0.33333334
        outWeight: 0.33333334
      m_PreInfinity: 2
      m_PostInfinity: 2
      m_RotationOrder: 4
    colorGradient:
      serializedVersion: 2
      key0: {r: 0.48235294, g: 0.023529412, b: 0.023529412, a: 1}
      key1: {r: 0.48235294, g: 0.023529412, b: 0.023529412, a: 1}
      key2: {r: 0, g: 0, b: 0, a: 0}
      key3: {r: 0, g: 0, b: 0, a: 0}
      key4: {r: 0, g: 0, b: 0, a: 0}
      key5: {r: 0, g: 0, b: 0, a: 0}
      key6: {r: 0, g: 0, b: 0, a: 0}
      key7: {r: 0, g: 0, b: 0, a: 0}
      ctime0: 0
      ctime1: 65535
      ctime2: 0
      ctime3: 0
      ctime4: 0
      ctime5: 0
      ctime6: 0
      ctime7: 0
      atime0: 0
      atime1: 65535
      atime2: 0
      atime3: 0
      atime4: 0
      atime5: 0
      atime6: 0
      atime7: 0
      m_Mode: 0
      m_NumColorKeys: 2
      m_NumAlphaKeys: 2
    numCornerVertices: 0
    numCapVertices: 0
    alignment: 0
    textureMode: 0
    shadowBias: 0.5
    generateLightingData: 0
  m_UseWorldSpace: 0
  m_Loop: 0
--- !u!1001 &4233865299976601475
PrefabInstance:
  m_ObjectHideFlags: 0
  serializedVersion: 2
  m_Modification:
    m_TransformParent: {fileID: 0}
    m_Modifications:
    - target: {fileID: 2840837411520525669, guid: 12665e0a412c6f547ba2eab53abb6640, type: 3}
      propertyPath: m_LocalScale.x
      value: 2
      objectReference: {fileID: 0}
    - target: {fileID: 2840837411520525669, guid: 12665e0a412c6f547ba2eab53abb6640, type: 3}
      propertyPath: m_LocalScale.y
      value: 2
      objectReference: {fileID: 0}
    - target: {fileID: 2840837411520525669, guid: 12665e0a412c6f547ba2eab53abb6640, type: 3}
      propertyPath: m_LocalScale.z
      value: 2
      objectReference: {fileID: 0}
    - target: {fileID: 2840837411520525669, guid: 12665e0a412c6f547ba2eab53abb6640, type: 3}
      propertyPath: m_LocalPosition.x
      value: 0
      objectReference: {fileID: 0}
    - target: {fileID: 2840837411520525669, guid: 12665e0a412c6f547ba2eab53abb6640, type: 3}
      propertyPath: m_LocalPosition.y
      value: 0
      objectReference: {fileID: 0}
    - target: {fileID: 2840837411520525669, guid: 12665e0a412c6f547ba2eab53abb6640, type: 3}
      propertyPath: m_LocalPosition.z
      value: 0
      objectReference: {fileID: 0}
    - target: {fileID: 2840837411520525669, guid: 12665e0a412c6f547ba2eab53abb6640, type: 3}
      propertyPath: m_LocalRotation.w
      value: 0.7071068
      objectReference: {fileID: 0}
    - target: {fileID: 2840837411520525669, guid: 12665e0a412c6f547ba2eab53abb6640, type: 3}
      propertyPath: m_LocalRotation.x
      value: -0.7071068
      objectReference: {fileID: 0}
    - target: {fileID: 2840837411520525669, guid: 12665e0a412c6f547ba2eab53abb6640, type: 3}
      propertyPath: m_LocalRotation.z
      value: 0
      objectReference: {fileID: 0}
    - target: {fileID: 2840837411520525669, guid: 12665e0a412c6f547ba2eab53abb6640, type: 3}
      propertyPath: m_LocalEulerAnglesHint.x
      value: -90
      objectReference: {fileID: 0}
    - target: {fileID: 2840837411520525669, guid: 12665e0a412c6f547ba2eab53abb6640, type: 3}
      propertyPath: m_ConstrainProportionsScale
      value: 1
      objectReference: {fileID: 0}
    - target: {fileID: 2840837412854258774, guid: 12665e0a412c6f547ba2eab53abb6640, type: 3}
      propertyPath: m_IsActive
      value: 0
      objectReference: {fileID: 0}
    - target: {fileID: 2840837413429824371, guid: 12665e0a412c6f547ba2eab53abb6640, type: 3}
      propertyPath: m_Name
      value: bow Variant
      objectReference: {fileID: 0}
    - target: {fileID: 2840837413429824375, guid: 12665e0a412c6f547ba2eab53abb6640, type: 3}
      propertyPath: m_RootOrder
      value: 0
      objectReference: {fileID: 0}
    - target: {fileID: 2840837413429824375, guid: 12665e0a412c6f547ba2eab53abb6640, type: 3}
      propertyPath: m_LocalScale.x
      value: 1
      objectReference: {fileID: 0}
    - target: {fileID: 2840837413429824375, guid: 12665e0a412c6f547ba2eab53abb6640, type: 3}
      propertyPath: m_LocalScale.y
      value: 1
      objectReference: {fileID: 0}
    - target: {fileID: 2840837413429824375, guid: 12665e0a412c6f547ba2eab53abb6640, type: 3}
      propertyPath: m_LocalScale.z
      value: 1
      objectReference: {fileID: 0}
    - target: {fileID: 2840837413429824375, guid: 12665e0a412c6f547ba2eab53abb6640, type: 3}
      propertyPath: m_LocalPosition.x
      value: 3.9909031
      objectReference: {fileID: 0}
    - target: {fileID: 2840837413429824375, guid: 12665e0a412c6f547ba2eab53abb6640, type: 3}
      propertyPath: m_LocalPosition.y
      value: 1.1999764
      objectReference: {fileID: 0}
    - target: {fileID: 2840837413429824375, guid: 12665e0a412c6f547ba2eab53abb6640, type: 3}
      propertyPath: m_LocalPosition.z
      value: -2.31
      objectReference: {fileID: 0}
    - target: {fileID: 2840837413429824375, guid: 12665e0a412c6f547ba2eab53abb6640, type: 3}
      propertyPath: m_LocalRotation.w
      value: 0.9996604
      objectReference: {fileID: 0}
    - target: {fileID: 2840837413429824375, guid: 12665e0a412c6f547ba2eab53abb6640, type: 3}
      propertyPath: m_LocalRotation.x
      value: -0
      objectReference: {fileID: 0}
    - target: {fileID: 2840837413429824375, guid: 12665e0a412c6f547ba2eab53abb6640, type: 3}
      propertyPath: m_LocalRotation.y
      value: -0
      objectReference: {fileID: 0}
    - target: {fileID: 2840837413429824375, guid: 12665e0a412c6f547ba2eab53abb6640, type: 3}
      propertyPath: m_LocalRotation.z
      value: -0.026063116
      objectReference: {fileID: 0}
    - target: {fileID: 2840837413429824375, guid: 12665e0a412c6f547ba2eab53abb6640, type: 3}
      propertyPath: m_LocalEulerAnglesHint.x
      value: 0
      objectReference: {fileID: 0}
    - target: {fileID: 2840837413429824375, guid: 12665e0a412c6f547ba2eab53abb6640, type: 3}
      propertyPath: m_LocalEulerAnglesHint.y
      value: 0
      objectReference: {fileID: 0}
    - target: {fileID: 2840837413429824375, guid: 12665e0a412c6f547ba2eab53abb6640, type: 3}
      propertyPath: m_LocalEulerAnglesHint.z
      value: -2.987
      objectReference: {fileID: 0}
    - target: {fileID: 2840837413429824375, guid: 12665e0a412c6f547ba2eab53abb6640, type: 3}
      propertyPath: m_ConstrainProportionsScale
      value: 1
      objectReference: {fileID: 0}
    - target: {fileID: 3274734581896249555, guid: 12665e0a412c6f547ba2eab53abb6640, type: 3}
      propertyPath: m_Enabled
      value: 1
      objectReference: {fileID: 0}
    m_RemovedComponents: []
  m_SourcePrefab: {fileID: 100100000, guid: 12665e0a412c6f547ba2eab53abb6640, type: 3}
--- !u!1 &2138392463141434608 stripped
GameObject:
  m_CorrespondingSourceObject: {fileID: 2840837413429824371, guid: 12665e0a412c6f547ba2eab53abb6640, type: 3}
  m_PrefabInstance: {fileID: 4233865299976601475}
  m_PrefabAsset: {fileID: 0}
--- !u!135 &1867657685
SphereCollider:
  m_ObjectHideFlags: 0
  m_CorrespondingSourceObject: {fileID: 0}
  m_PrefabInstance: {fileID: 0}
  m_PrefabAsset: {fileID: 0}
  m_GameObject: {fileID: 2138392463141434608}
  m_Material: {fileID: 0}
  m_IsTrigger: 1
  m_Enabled: 1
  serializedVersion: 2
  m_Radius: 0.4
  m_Center: {x: 0, y: 0, z: -0.31}
--- !u!114 &1867657689
MonoBehaviour:
  m_ObjectHideFlags: 0
  m_CorrespondingSourceObject: {fileID: 0}
  m_PrefabInstance: {fileID: 0}
  m_PrefabAsset: {fileID: 0}
  m_GameObject: {fileID: 2138392463141434608}
  m_Enabled: 1
  m_EditorHideFlags: 0
  m_Script: {fileID: 11500000, guid: 2383b260365091e40b7d5f3380527d84, type: 3}
  m_Name: 
  m_EditorClassIdentifier: 
--- !u!4 &2138392463141434612 stripped
Transform:
  m_CorrespondingSourceObject: {fileID: 2840837413429824375, guid: 12665e0a412c6f547ba2eab53abb6640, type: 3}
  m_PrefabInstance: {fileID: 4233865299976601475}
  m_PrefabAsset: {fileID: 0}
