%YAML 1.1
%TAG !u! tag:unity3d.com,2011:
--- !u!1001 &8805106625590265492
PrefabInstance:
  m_ObjectHideFlags: 0
  serializedVersion: 2
  m_Modification:
    m_TransformParent: {fileID: 0}
    m_Modifications:
    - target: {fileID: 1082568390270273830, guid: 52cbf92ed3c940b41a5d3952559e088d, type: 3}
      propertyPath: m_RootOrder
      value: 0
      objectReference: {fileID: 0}
    - target: {fileID: 1082568390270273830, guid: 52cbf92ed3c940b41a5d3952559e088d, type: 3}
      propertyPath: m_LocalPosition.x
      value: -3.345
      objectReference: {fileID: 0}
    - target: {fileID: 1082568390270273830, guid: 52cbf92ed3c940b41a5d3952559e088d, type: 3}
      propertyPath: m_LocalPosition.y
      value: 1.26
      objectReference: {fileID: 0}
    - target: {fileID: 1082568390270273830, guid: 52cbf92ed3c940b41a5d3952559e088d, type: 3}
      propertyPath: m_LocalPosition.z
      value: 0
      objectReference: {fileID: 0}
    - target: {fileID: 1082568390270273830, guid: 52cbf92ed3c940b41a5d3952559e088d, type: 3}
      propertyPath: m_LocalRotation.w
      value: 1
      objectReference: {fileID: 0}
    - target: {fileID: 1082568390270273830, guid: 52cbf92ed3c940b41a5d3952559e088d, type: 3}
      propertyPath: m_LocalRotation.x
      value: 0
      objectReference: {fileID: 0}
    - target: {fileID: 1082568390270273830, guid: 52cbf92ed3c940b41a5d3952559e088d, type: 3}
      propertyPath: m_LocalRotation.y
      value: 0
      objectReference: {fileID: 0}
    - target: {fileID: 1082568390270273830, guid: 52cbf92ed3c940b41a5d3952559e088d, type: 3}
      propertyPath: m_LocalRotation.z
      value: 0
      objectReference: {fileID: 0}
    - target: {fileID: 1082568390270273830, guid: 52cbf92ed3c940b41a5d3952559e088d, type: 3}
      propertyPath: m_LocalEulerAnglesHint.x
      value: 0
      objectReference: {fileID: 0}
    - target: {fileID: 1082568390270273830, guid: 52cbf92ed3c940b41a5d3952559e088d, type: 3}
      propertyPath: m_LocalEulerAnglesHint.y
      value: 0
      objectReference: {fileID: 0}
    - target: {fileID: 1082568390270273830, guid: 52cbf92ed3c940b41a5d3952559e088d, type: 3}
      propertyPath: m_LocalEulerAnglesHint.z
      value: 0
      objectReference: {fileID: 0}
    - target: {fileID: 1082568390549183205, guid: 52cbf92ed3c940b41a5d3952559e088d, type: 3}
      propertyPath: m_Name
      value: leftDownFrontRabbit
      objectReference: {fileID: 0}
    m_RemovedComponents: []
  m_SourcePrefab: {fileID: 100100000, guid: 52cbf92ed3c940b41a5d3952559e088d, type: 3}
